Introduction to R and RStudio
…
To do so, once again, you can

click on the green arrow at the top of the code chunk in the R Markdown (Rmd) file, or

put your cursor on this line, and hit the Run button on the upper right corner of the pane, or

type the code in the console.

This command instructs R to load some data. The Arbuthnot baptism counts for boys and girls. You should see that the workspace area in the upper righthand corner of the RStudio window now lists a data set called arbuthnot that has 82 observations on 3 variables. As you interact with R, you will create a series of objects. Sometimes you load them as we have done here, and sometimes you create them yourself as the byproduct of a computation or some analysis you have performed.

The Arbuthnot data set refers to Dr.John Arbuthnot, an 18th century physician, writer, and mathematician. He was interested in the ratio of newborn boys to newborn girls, so he gathered the baptism records for children born in London for every year from 1629 to 1710. We can take a look at the data by typing its name into the console.

arbuthnot

## # A tibble: 82 x 3
##     year  boys girls
##    <int> <int> <int>
##  1  1629  5218  4683
##  2  1630  4858  4457
##  3  1631  4422  4102
##  4  1632  4994  4590
##  5  1633  5158  4839
##  6  1634  5035  4820
##  7  1635  5106  4928
##  8  1636  4917  4605
##  9  1637  4703  4457
## 10  1638  5359  4952
## #  with 72 more rows
…
Finally, in addition to simple mathematical operators like subtraction and division, you can ask R to make comparisons like greater than, >, less than, <, and equality, ==. For example, we can ask if boys outnumber girls in each year with the expression

arbuthnot <- arbuthnot %>%
  mutate(more_boys = boys > girls)
arbuthnot

## # A tibble: 82 x 5
##     year  boys girls total more_boys
##    <int> <int> <int> <int> <lgl>    
##  1  1629  5218  4683  9901 TRUE     
##  2  1630  4858  4457  9315 TRUE     
##  3  1631  4422  4102  8524 TRUE     
##  4  1632  4994  4590  9584 TRUE     
##  5  1633  5158  4839  9997 TRUE     
##  6  1634  5035  4820  9855 TRUE     
##  7  1635  5106  4928 10034 TRUE     
##  8  1636  4917  4605  9522 TRUE     
##  9  1637  4703  4457  9160 TRUE     
## 10  1638  5359  4952 10311 TRUE     
## #  with 72 more rows
…
Create a new variable called more_boys which contains the value of either TRUE if that year had more boys than girls, or FALSE if that year did not. Based on this variable which of the following statements is true?

Every year there are more girls born than boys.

Every year there are more boys born than girls.

Half of the years there are more boys born, and the other half more girls born.

present

## # A tibble: 74 x 5
##     year    boys   girls   total prop_boys
##    <dbl>   <dbl>   <dbl>   <dbl>     <dbl>
##  1  1940 1211684 1148715 2360399     0.513
##  2  1941 1289734 1223693 2513427     0.513
##  3  1942 1444365 1364631 2808996     0.514
##  4  1943 1508959 1427901 2936860     0.514
##  5  1944 1435301 1359499 2794800     0.514
##  6  1945 1404587 1330869 2735456     0.513
##  7  1946 1691220 1597452 3288672     0.514
##  8  1947 1899876 1800064 3699940     0.513
##  9  1948 1813852 1721216 3535068     0.513
## 10  1949 1826352 1733177 3559529     0.513
## #  with 64 more rows
…
